<html>
	
<table width="100%"  cellspacing="0" cellpadding="0">

	<tr>
    	<td ><strong>SeatGeek Orders Updater Job failed :</strong></td>
    </tr>
    
    <tr>
    	<td >&nbsp;&nbsp;&nbsp;&nbsp;&nbsp;&nbsp;</td>
    </tr>
    
    <tr>
    	<td >${error}</td>
    </tr>
    
    <tr>
    	<td >&nbsp;&nbsp;&nbsp;&nbsp;&nbsp;&nbsp;</td>
    </tr>
    
    
    <tr>
    	<td >Thank You,</td>
    </tr>
    <tr>
    	<td >Technical Support Team,</td>
    </tr>
    <tr>
    	<td >RightThisWay.,</td>
    </tr>

</table>
	

</html>